<svg width="72" height="73" viewBox="0 0 72 73" fill="none" xmlns="http://www.w3.org/2000/svg">
<g opacity="0.5">
<path d="M71.87 5.32002V67.14C71.87 69.93 69.63 72.17 66.84 72.17H5.01999C2.25999 72.17 -0.0100098 69.93 -0.0100098 67.14V5.32002C-0.0100098 2.53002 2.24999 0.27002 5.01999 0.27002H66.84C69.63 0.27002 71.87 2.53002 71.87 5.32002Z" fill="#E9E9E9"/>
</g>
<g opacity="0.5">
<path d="M35.93 49.14C43.071 49.14 48.86 43.3511 48.86 36.21C48.86 29.069 43.071 23.28 35.93 23.28C28.789 23.28 23 29.069 23 36.21C23 43.3511 28.789 49.14 35.93 49.14Z" fill="#A8A8A8"/>
</g>
<path d="M35.93 45.32C35.05 45.32 34.34 44.61 34.34 43.73V28.7C34.34 27.82 35.05 27.11 35.93 27.11C36.81 27.11 37.52 27.82 37.52 28.7V43.73C37.52 44.61 36.81 45.32 35.93 45.32Z" fill="white"/>
<path d="M43.4399 37.81H28.4099C27.5299 37.81 26.8199 37.1 26.8199 36.22C26.8199 35.34 27.5299 34.63 28.4099 34.63H43.4399C44.3199 34.63 45.0299 35.34 45.0299 36.22C45.0299 37.1 44.3199 37.81 43.4399 37.81Z" fill="white"/>
</svg>
