<svg width="62" height="73" viewBox="0 0 62 73" fill="none" xmlns="http://www.w3.org/2000/svg">
<path d="M28.4522 1.02255C13.4161 2.07408 1.2919 14.2417 0.129752 29.27C-0.177107 33.2083 0.260328 36.9964 1.31148 40.5167C2.70214 45.2127 5.18313 49.4253 8.4737 52.8738L8.64997 53.0567L9.33552 53.7424L9.51179 53.9122L26.2389 70.6452C28.6741 73.0813 32.6241 73.0813 35.066 70.6452L53.3665 52.3382C56.3959 49.0073 58.7137 45.0102 60.039 40.5821C60.8878 37.7802 61.3383 34.815 61.3383 31.7323C61.3383 14.0654 46.3871 -0.224909 28.4652 1.02908L28.4522 1.02255ZM45.2902 31.6474C45.2902 39.6677 38.7417 46.2969 30.6394 46.2969C22.537 46.2969 16.0733 39.6677 16.0733 31.6474C16.0733 28.2838 17.2028 25.188 19.0962 22.7127C19.8797 21.6808 20.8068 20.7533 21.8449 19.963C24.2867 18.0951 27.3423 16.9848 30.6394 16.9848C33.9365 16.9848 36.8353 18.0233 39.2445 19.7802C40.498 20.6815 41.5949 21.7852 42.4958 23.0262C44.2521 25.4427 45.2902 28.421 45.2902 31.6408V31.6474Z" fill="#3C8ED3"/>
</svg>
