<svg width="123" height="124" viewBox="0 0 123 124" fill="none" xmlns="http://www.w3.org/2000/svg">
<g clip-path="url(#clip0_123_783)">
<path d="M113.525 0.791504H9.30161C4.194 0.791504 0.0534668 4.93204 0.0534668 10.0396V114.263C0.0534668 119.371 4.194 123.511 9.30161 123.511H113.525C118.633 123.511 122.773 119.371 122.773 114.263V10.0396C122.773 4.93204 118.633 0.791504 113.525 0.791504Z" fill="#3C8ED3"/>
<path d="M25.6795 19.0643H29.1722C31.6189 19.0643 33.6005 21.0459 33.6005 23.4926V35.8024H48.52V23.4926C48.52 21.0459 50.5015 19.0643 52.9482 19.0643H56.4409C58.8877 19.0643 60.8692 21.0459 60.8692 23.4926V61.652C60.8692 64.0988 58.8877 66.0803 56.4409 66.0803H52.9482C50.5015 66.0803 48.52 64.0988 48.52 61.652V48.1517H33.6005V61.652C33.6005 64.0988 31.6189 66.0803 29.1722 66.0803H25.6795C23.2328 66.0803 21.2512 64.0988 21.2512 61.652V23.4926C21.2512 21.0459 23.2328 19.0643 25.6795 19.0643Z" fill="white"/>
<path d="M20.1606 74.3272C20.1606 72.6794 21.4957 71.3444 23.1435 71.3444H34.1367C39.2036 71.3444 43.511 75.6938 43.511 80.7607C43.511 82.9131 42.7094 84.8973 41.4847 86.461C43.6371 88.1929 45.0746 90.8524 45.0746 93.7223C45.0746 98.7471 40.8093 103.012 35.7845 103.012H23.1435C21.4957 103.012 20.1606 101.677 20.1606 100.03V74.3272ZM32.4889 83.7146C34.0079 83.7146 35.2326 82.49 35.2326 80.9709C35.2326 79.4519 34.0079 78.2272 32.4889 78.2272H28.4785V83.7173H32.4889V83.7146ZM34.0499 96.1716C35.569 96.1716 36.7936 94.947 36.7936 93.4279C36.7936 91.9089 35.4849 90.6842 34.0499 90.6842H28.4758V96.1743H34.0499V96.1716Z" fill="white"/>
<path d="M46.9695 90.2716V74.3272C46.9695 72.6794 48.3045 71.3444 49.9523 71.3444H52.3465C53.9943 71.3444 55.3293 72.6794 55.3293 74.3272V90.2638C55.3293 92.4161 56.9219 94.3005 59.0638 94.5054C61.5237 94.7393 63.6051 92.7998 63.6051 90.3873V74.3272C63.6051 72.6794 64.9402 71.3444 66.5879 71.3444H68.9821C70.6299 71.3444 71.965 72.6794 71.965 74.3272V90.5134C71.965 97.4173 66.4487 102.913 59.6525 103.01C52.6776 103.11 46.9695 97.2465 46.9695 90.2716Z" fill="white"/>
<path d="M83.9568 91.357L74.9741 75.8199C73.8257 73.8305 75.2606 71.3444 77.5575 71.3444H80.2486C81.3156 71.3444 82.3012 71.9146 82.8347 72.8397L88.054 81.9013L93.3154 72.8318C93.8489 71.912 94.8317 71.3444 95.8961 71.3444H98.5925C100.889 71.3444 102.324 73.8305 101.176 75.8199L92.1932 91.357V100.027C92.1932 101.675 90.8581 103.01 89.2103 103.01H86.9423C85.2945 103.01 83.9595 101.675 83.9595 100.027V91.357H83.9568Z" fill="white"/>
<path d="M81.468 19.1117C71.7731 19.7897 63.9546 27.6319 63.203 37.3215C63.0059 39.8602 63.2871 42.3017 63.9651 44.5697C64.8639 47.5946 66.4644 50.3094 68.5826 52.5327L68.6957 52.651L69.1398 53.0951L69.2528 53.2029L80.0357 63.9858C81.6073 65.5574 84.1539 65.5574 85.7255 63.9858L97.5255 52.1858C99.4807 50.0387 100.973 47.4606 101.83 44.6065C102.377 42.801 102.671 40.8878 102.671 38.9036C102.671 27.5162 93.0315 18.3022 81.4733 19.1117H81.468ZM92.3272 38.8537C92.3272 44.0231 88.1039 48.2963 82.8793 48.2963C77.6547 48.2963 73.4866 44.0231 73.4866 38.8537C73.4866 36.6855 74.2146 34.6882 75.4366 33.0956C75.9412 32.4307 76.5404 31.8341 77.2079 31.3243C78.7821 30.1206 80.7506 29.4058 82.8767 29.4058C85.0028 29.4058 86.8713 30.0733 88.4245 31.206C89.2313 31.7868 89.9409 32.4964 90.5217 33.3006C91.6544 34.859 92.3219 36.7775 92.3219 38.8537H92.3272Z" fill="white"/>
</g>
<defs>
<clipPath id="clip0_123_783">
<rect width="122.72" height="122.72" fill="white" transform="translate(0.0534668 0.791504)"/>
</clipPath>
</defs>
</svg>
