<svg width="269" height="78" viewBox="0 0 269 78" fill="none" xmlns="http://www.w3.org/2000/svg">
<path d="M5.82851 0H10.4286C13.6499 0 16.2571 2.59957 16.2571 5.80353V21.9208H35.8989V5.80353C35.8989 2.59957 38.5061 0 41.7274 0H46.3275C49.5489 0 52.156 2.59307 52.156 5.79703V55.7607C52.156 58.9647 49.5489 61.5577 46.3275 61.5577H41.7274C38.5061 61.5577 35.8989 58.9647 35.8989 55.7607V38.0837H16.2571V55.7607C16.2571 58.9647 13.6499 61.5577 10.4286 61.5577H5.82851C2.60715 61.5577 0 58.9647 0 55.7607V5.80353C0 2.59957 2.60715 0 5.82851 0Z" fill="#3C8ED3"/>
<path d="M108.866 53.5186C109.566 52.8817 110.232 52.2188 110.872 51.5234L108.866 53.5186Z" fill="#3C8ED3"/>
<path d="M109.873 5.80353C109.873 2.59957 112.48 0 115.701 0H137.186C147.091 0 155.507 8.45509 155.507 18.301C155.507 22.4863 153.939 26.3466 151.548 29.3816C155.756 32.748 158.565 37.9212 158.565 43.4973C158.565 53.2651 150.228 61.5577 140.407 61.5577H115.701C112.48 61.5577 109.873 58.9647 109.873 55.7607V5.80353ZM133.971 24.0525C136.944 24.0525 139.335 21.6739 139.335 18.7169C139.335 15.7599 136.944 13.3813 133.971 13.3813H126.13V24.0525H133.971ZM137.022 48.2675C139.995 48.2675 142.387 45.8889 142.387 42.9318C142.387 39.9748 139.825 37.5962 137.022 37.5962H126.13V48.2675H137.022Z" fill="#3C8ED3"/>
<path d="M162.27 36.7969V5.80353C162.27 2.59957 164.878 0.00649892 168.099 0.00649892H172.777C175.999 0.00649892 178.606 2.59957 178.606 5.80353V36.7839C178.606 40.9692 181.716 44.6346 185.905 45.031C190.714 45.4859 194.778 41.7166 194.778 37.0243V5.80353C194.785 2.59957 197.398 0 200.613 0H205.292C208.513 0 211.12 2.59307 211.12 5.79703V37.2648C211.12 50.6851 200.339 61.3693 187.055 61.5577C173.424 61.7527 162.264 50.3536 162.264 36.7969H162.27Z" fill="#3C8ED3"/>
<path d="M234.558 38.909L217.001 8.70205C214.753 4.83519 217.556 0 222.045 0H227.305C229.39 0 231.317 1.10482 232.356 2.90502L242.556 20.5236L252.834 2.89202C253.893 1.10482 255.814 0 257.892 0H263.165C267.654 0 270.457 4.83519 268.209 8.70205L250.652 38.909V55.7672C250.652 58.9712 248.045 61.5642 244.824 61.5642H240.393C237.172 61.5642 234.565 58.9712 234.565 55.7672V38.909H234.558Z" fill="#3C8ED3"/>
<path d="M1.05859 68.7001H6.91324V70.7082H3.50892V72.2225H6.51465V74.2956H3.50892V78H1.05859V68.7066V68.7001Z" fill="#3C8ED3"/>
<path d="M12.0751 78C9.49414 78 7.41626 75.9268 7.41626 73.3663C7.41626 70.8057 9.50067 68.7065 12.0751 68.7065C14.6496 68.7065 16.7471 70.7992 16.7471 73.3663C16.7471 75.9333 14.6562 78 12.0751 78ZM12.0751 71.1306C10.8532 71.1306 9.85352 72.125 9.85352 73.3468C9.85352 74.5686 10.8532 75.5629 12.0751 75.5629C13.297 75.5629 14.3033 74.5621 14.3033 73.3468C14.3033 72.1315 13.3036 71.1306 12.0751 71.1306Z" fill="#3C8ED3"/>
<path d="M17.4921 68.7001H21.4323C23.3272 68.7001 24.8692 70.2338 24.8692 72.1185C24.8692 73.1128 24.4315 74.0032 23.7584 74.6206L25.7383 77.9935H22.909L21.4649 75.5239H19.9425V77.9935H17.4856V68.7001H17.4921ZM21.4649 73.4248C22.2098 73.4248 22.811 72.8399 22.811 72.099C22.811 71.3581 22.2098 70.7602 21.4649 70.7602H19.9425V73.4248H21.4649Z" fill="#3C8ED3"/>
<path d="M28.4238 68.7001H30.8807V72.008H33.8472V68.7001H36.3041V77.9935H33.8472V74.4451H30.8807V77.9935H28.4238V68.7001Z" fill="#3C8ED3"/>
<path d="M41.708 78C39.1269 78 37.0491 75.9268 37.0491 73.3663C37.0491 70.8057 39.1269 68.7065 41.708 68.7065C44.289 68.7065 46.3799 70.7992 46.3799 73.3663C46.3799 75.9333 44.289 78 41.708 78ZM41.708 71.1306C40.4861 71.1306 39.4929 72.125 39.4929 73.3468C39.4929 74.5686 40.4926 75.5629 41.708 75.5629C42.9233 75.5629 43.9361 74.5621 43.9361 73.3468C43.9361 72.1315 42.9364 71.1306 41.708 71.1306Z" fill="#3C8ED3"/>
<path d="M47.1248 68.7001H49.5816V75.5434H52.9467V78H47.1248V68.7066V68.7001Z" fill="#3C8ED3"/>
<path d="M57.4292 68.7001H58.527L62.9245 77.9935H60.4676L59.8926 76.7782H56.0636L55.5017 77.9935H53.0579L57.4227 68.7001H57.4292ZM58.9386 74.7246L57.9912 72.6774L57.0307 74.7246H58.9386Z" fill="#3C8ED3"/>
<path d="M64.7932 75.16H67.2827C67.2827 75.5564 67.6421 75.8814 68.191 75.8814C68.6876 75.8814 69.0731 75.5954 69.0731 75.16C69.0731 74.6986 68.6484 74.4321 68.1649 74.4321C66.3549 74.4321 64.7997 73.1583 64.7997 71.5661C64.7997 69.9739 66.2111 68.7001 68.191 68.7001C70.0598 68.7001 71.5692 69.9674 71.5692 71.5531H69.0862C69.0862 71.1697 68.7007 70.8317 68.191 70.8317C67.6813 70.8317 67.2958 71.1177 67.2958 71.5531C67.2958 71.9885 67.6552 72.281 68.191 72.281C70.099 72.281 71.5692 73.5678 71.5692 75.147C71.5692 76.7262 70.099 78 68.2302 78C66.185 78 64.7932 76.6742 64.7932 75.16Z" fill="#3C8ED3"/>
<path d="M74.3135 71.1177H71.8828V68.6871H79.2469V71.1177H76.7639V78H74.307V71.1177H74.3135Z" fill="#3C8ED3"/>
<path d="M79.874 74.3281V68.7001H82.344V74.2891C82.344 74.9585 82.8928 75.5044 83.5658 75.5044C84.2389 75.5044 84.7877 74.9585 84.7877 74.2891V68.7001H87.2577V74.3281C87.2577 76.3753 85.598 78 83.5658 78C81.5337 78 79.874 76.3753 79.874 74.3281Z" fill="#3C8ED3"/>
<path d="M88.3098 68.7001H91.7729C94.354 68.7001 96.4449 70.7797 96.4449 73.3468C96.4449 75.9139 94.354 77.9935 91.7729 77.9935H88.3098V68.7001ZM91.786 75.5889C93.0079 75.5889 94.0076 74.5946 94.0076 73.3793C94.0076 72.164 93.0079 71.1827 91.786 71.1827H90.7536V75.5824H91.786V75.5889Z" fill="#3C8ED3"/>
<path d="M97.1897 68.7001H102.999V70.7212H99.6466V72.2355H102.613V74.2956H99.6466V76.0049H102.999V78H97.1897V68.7066V68.7001Z" fill="#3C8ED3"/>
<path d="M103.809 68.7001H104.809L109.232 73.0868V68.7001H111.689V77.9935H110.683L106.272 73.5938V77.9935H103.815V68.7001H103.809Z" fill="#3C8ED3"/>
<path d="M114.734 71.1177H112.303V68.6871H119.668V71.1177H117.185V78H114.728V71.1177H114.734Z" fill="#3C8ED3"/>
<path d="M79.273 0.0649558C66.5117 0.955307 56.2204 11.2236 55.2272 23.9095C54.9658 27.2369 55.3382 30.4279 56.2269 33.3979C57.4096 37.3557 59.5136 40.9172 62.3037 43.8222L62.454 43.9781L63.0355 44.5565L63.1858 44.6995L77.3846 58.8217C79.456 60.8818 82.808 60.8818 84.8728 58.8217L100.405 43.3737C102.979 40.5597 104.939 37.1868 106.07 33.4499C106.789 31.0843 107.174 28.5822 107.174 25.9826C107.181 11.0676 94.4912 -0.994368 79.273 0.0649558ZM93.5699 25.9176C93.5699 32.683 88.0093 38.2786 81.1353 38.2786C74.2613 38.2786 68.7726 32.683 68.7726 25.9176C68.7726 23.0776 69.7266 20.4651 71.3405 18.3789C72.007 17.5081 72.7911 16.7282 73.6732 16.0588C75.7446 14.4861 78.3386 13.5502 81.1353 13.5502C83.9319 13.5502 86.3953 14.4276 88.4405 15.9093C89.4991 16.6697 90.44 17.599 91.2045 18.6519C92.6943 20.6925 93.5764 23.2011 93.5764 25.9241L93.5699 25.9176Z" fill="#3C8ED3"/>
</svg>
