{
  "project_info": {
    "project_number": "347364231530",
    "project_id": "fushipment",
    "storage_bucket": "fushipment.appspot.com"
  },
  "client": [
    {
      "client_info": {
        "mobilesdk_app_id": "1:347364231530:android:c903e3ad9cab545ff4fd13",
        "android_client_info": {
          "package_name": "com.fu.fushipment.vendor"
        }
      },
      "oauth_client": [
        {
          "client_id": "347364231530-bgg54usman9qfkuihc0cuanbah682qd6.apps.googleusercontent.com",
          "client_type": 3
        }
      ],
      "api_key": [
        {
          "current_key": "AIzaSyAUyITzktqjTzPlRFrWwMTCLfBylk06ArA"
        }
      ],
      "services": {
        "appinvite_service": {
          "other_platform_oauth_client": [
            {
              "client_id": "347364231530-bgg54usman9qfkuihc0cuanbah682qd6.apps.googleusercontent.com",
              "client_type": 3
            },
            {
              "client_id": "347364231530-jifs23lcofd2002n8infblhthlq6cs1s.apps.googleusercontent.com",
              "client_type": 2,
              "ios_info": {
                "bundle_id": "com.fu.fushipment.vendor"
              }
            }
          ]
        }
      }
    }
  ],
  "configuration_version": "1"
}